%rename("cv_%s", regexmatch$name="^new_") "";

%module cvrry
%{
#define SWIG_FILE_WITH_INIT
#include "align.h"
#include "cvrry_parse_mmcif.h"
#include "prosup.h"
#include "rna_score.h"
#include "array.h"
#include "cvrry_utils.h"
#include "psi.h"
#include "sais.h"
#include "bin_utils.h"
#include "e_malloc.h"
#include "rna_align.h"
#include "score_mat.h"
#include "chainlist.h"
#include "fio.h"
#include "rna_comparison.h"
#include "scratch.h"
#include "cmp_dmat.h"
#include "lsqf.h"
#include "rna_coord.h"
#include "seq.h"
#include "coord.h"
#include "matrix.h"
#include "rna_frag_coord.h"
#include "suffix_arr.h"
#include "cvrry_defaults.h"
#include "mprintf.h"
#include "rna_frags.h"
#include "wrapped_matrix.h"
#include "cvrry_optparse.h"
#include "pair_set.h"
#include "rna_get_atoms.h"
#include "yesno.h"
#include "cvrry_pairwise.h"
#include "pair_set_p.h"
#include "rna_precompute.h"
#include "double_index.h"
#include "alphabet_index.h"
#include "rna_coord_stringset.h"
#include "cvrry_indexed_chainset.h"
#include "cvrry_continuous_chains.h"
#include "alpha_opt.h"
#include "alpha_opt_energy.h"
#include "rna_alphabet.h"
#include "rna_cif_coord.h"
#include "continuous_match.h"
#include "rna_matchfiles.h"
#include "binary_file.h"
#include "cvrry_chimera_script.h"
#include "rna_multialign.h"
#include "rna_multalign_scores.h"
#include "pair.h"
#include "rna_seq_coord.h"
#include "rna_alphabet_stats.h"
%}
